MtGox,BitStamp,Difference,Date

96.95101,92.0,4.95101,1373764820
96.88,92.0,4.88,1373764833
96.0,91.58,4.42,1373767686
96.00001,91.58,4.42001,1373767712
96.00002,91.58,4.42002,1373767732
96.0,91.58,4.42,1373767745
96.00001,91.58,4.42001,1373767752
96.00003,91.58,4.42003,1373767786
95.71631,91.58,4.13631,1373767792
96.0,91.58,4.42,1373767805
95.72,91.58,4.14,1373767811
95.72001,91.58,4.14001,1373767818
95.7299,91.58,4.1499,1373767831
95.72334,91.58,4.14334,1373767850
95.70002,91.58,4.12002,1373767909
95.72334,91.58,4.14334,1373767923
95.72334,91.6,4.12334,1373767982
95.72334,91.58,4.14334,1373768001
95.71101,91.58,4.13101,1373768014
95.7,91.58,4.12,1373768061
95.63273,91.58,4.05273,1373768087
96.0,91.58,4.42,1373768107
95.639,91.58,4.059,1373768120
95.63901,91.58,4.05901,1373768140
95.63901,91.59,4.04901,1373768142
95.62,91.59,4.03,1373768146
95.6,91.59,4.01,1373768154
95.6,91.58,4.02,1373768217
95.60001,91.58,4.02001,1373768379
95.61,91.58,4.03,1373768392
95.659,91.58,4.079,1373768443
95.67,91.58,4.09,1373768598
95.77129,91.58,4.19129,1373768642
95.65904,91.58,4.07904,1373768649
95.77129,91.58,4.19129,1373768698
95.99999,91.58,4.41999,1373768704
95.99999,91.59,4.40999,1373768729
95.659,91.59,4.069,1373768922
95.99999,91.59,4.40999,1373768955
95.99999,91.6,4.39999,1373768973
95.98999,91.6,4.38999,1373769211
95.98999,91.59,4.39999,1373769230
95.659,91.59,4.069,1373769237
95.659,91.57,4.089,1373769249
95.61187,91.57,4.04187,1373769277
95.61188,91.57,4.04188,1373769296
95.422,91.57,3.852,1373769303
95.5,91.57,3.93,1373769309
95.5,91.58,3.92,1373769325
95.5,91.6,3.9,1373769377
95.98999,91.6,4.38999,1373769405
95.98998,91.6,4.38998,1373769411
95.98999,91.6,4.38999,1373769418
95.98998,91.6,4.38998,1373769425
95.98998,91.65,4.33998,1373769438
95.97999,91.65,4.32999,1373769470
95.97997,91.65,4.32997,1373769510
95.97997,91.54,4.43997,1373769550
95.97997,91.65,4.32997,1373769556
95.97997,91.55,4.42997,1373769567
95.95999,91.55,4.40999,1373769595
95.94999,91.55,4.39999,1373769623
95.94999,91.6,4.34999,1373769667
95.94,91.6,4.34,1373769713
95.93999,91.6,4.33999,1373769728
95.43001,91.6,3.83001,1373769753
95.43001,91.51,3.92001,1373769799
95.9,91.51,4.39,1373769907
95.9,91.54,4.36,1373769996
95.50002,91.54,3.96002,1373770000
95.50001,91.54,3.96001,1373770020
97.0,91.54,5.46,1373770050
95.50001,91.54,3.96001,1373770052
95.50001,91.6,3.90001,1373770082
95.50001,91.61,3.89001,1373770157
95.50001,91.52,3.98001,1373770168
95.5,91.52,3.98,1373770174
95.58,91.52,4.06,1373770187
95.58,91.57,4.01,1373770213
95.58,91.58,4.00,1373770232
95.5,91.58,3.92,1373770252
95.50001,91.58,3.92001,1373770285
95.50001,91.59,3.91001,1373770288
95.50001,91.52,3.98001,1373770318
95.50001,91.59,3.91001,1373770320
95.50001,91.57,3.93001,1373770376
95.50001,91.58,3.92001,1373770398
95.50001,91.59,3.91001,1373770411
95.50001,91.52,3.98001,1373770428
95.50001,91.57,3.93001,1373770437
95.50001,91.56,3.94001,1373770456
95.50001,91.57,3.93001,1373770499
95.50001,91.58,3.92001,1373770512
95.58,91.58,4.00,1373770557
95.58,91.5,4.08,1373770574
95.58,91.59,3.99,1373770579
95.58,91.57,4.01,1373770608
95.58,91.58,4.00,1373770632
95.58,91.59,3.99,1373770652
95.58,91.6,3.98,1373770679
95.58,91.61,3.97,1373770696
95.58,91.62,3.96,1373770786
95.58,91.63,3.95,1373770799
95.58,91.58,4.00,1373770821
95.57999,91.58,3.99999,1373770823
95.57999,91.63,3.94999,1373770832
95.57999,91.56,4.01999,1373770836
95.57999,91.62,3.95999,1373770844
95.58,91.65,3.93,1373770895
95.58,91.67,3.91,1373770943
95.58,91.56,4.02,1373771028
95.58,91.62,3.96,1373771055
95.58,91.61,3.97,1373771068
95.5,91.61,3.89,1373771231
95.5,91.58,3.92,1373771291
95.5,91.67,3.83,1373771315
95.5,91.58,3.92,1373771422
95.58,91.58,4.00,1373771431
95.5,91.58,3.92,1373771445
95.5,91.59,3.91,1373771565
95.5,91.61,3.89,1373771672
95.985,91.61,4.375,1373771685
95.985,91.83,4.155,1373771729
95.985,91.5,4.485,1373771740
95.985,91.83,4.155,1373771750
95.99,91.83,4.16,1373771795
95.98999,91.83,4.15999,1373771808
95.98999,91.62,4.36999,1373771845
95.50002,91.62,3.88002,1373771860
95.50003,91.62,3.88003,1373771879
95.50002,91.62,3.88002,1373771886
95.50001,91.62,3.88001,1373771892
95.50001,91.91,3.59001,1373772000
95.98995,91.91,4.07995,1373772065
95.52096,91.91,3.61096,1373772078
95.98996,91.91,4.07996,1373772084
95.98996,91.89,4.09996,1373772098
95.98994,91.89,4.09994,1373772124
95.98993,91.89,4.09993,1373772130
95.98994,91.89,4.09994,1373772156
95.98996,91.89,4.09996,1373772175
95.98997,91.89,4.09997,1373772182
95.9899,91.89,4.0999,1373772350
95.98999,91.89,4.09999,1373772417
95.98996,91.89,4.09996,1373772450
95.99,91.89,4.10,1373772553
95.98999,91.89,4.09999,1373772738
95.99,91.89,4.10,1373772763
95.9899,91.89,4.0999,1373772866
95.9899,91.85,4.1399,1373772884
95.9899,91.91,4.0799,1373772915
95.9899,91.9,4.0899,1373772949
95.9899,91.87,4.1199,1373772953
95.57504,91.87,3.70504,1373773042
95.57503,91.87,3.70503,1373773049
95.571,91.87,3.701,1373773062
95.571,91.71,3.861,1373773134
95.99,91.71,4.28,1373773165
95.02,91.71,3.31,1373773320
95.47629,91.52,3.95629,1373774087
93.25219,89.44,3.81219,1373843907
93.25219,89.48,3.77219,1373843965
93.25219,89.46,3.79219,1373843979
93.5,89.46,4.04,1373843991
93.25219,89.46,3.79219,1373844010
93.25,89.46,3.79,1373844100
93.25,89.45,3.80,1373844111
93.05101,89.5,3.55101,1373844113
93.05102,89.5,3.55102,1373844135
93.05101,89.5,3.55101,1373844141
93.05101,89.76,3.29101,1373844152
93.05101,89.78,3.27101,1373844174
93.24999,89.78,3.46999,1373844199
93.24999,89.83,3.41999,1373844211
93.24999,89.9,3.34999,1373844223
93.25001,89.6,3.65001,1373844258
93.25,89.6,3.65,1373844298
93.0531,89.6,3.4531,1373844324
93.0534,89.6,3.4534,1373844369
93.0534,89.61,3.4434,1373844373
93.0541,89.61,3.4441,1373844381
93.0542,89.61,3.4442,1373844413
93.0542,89.6,3.4542,1373844420
93.0541,89.6,3.4541,1373844446
93.07,89.6,3.47,1373844543
93.06,89.6,3.46,1373844571
93.06,89.99,3.07,1373844578
93.06,90.0,3.06,1373844582
93.06,89.89,3.17,1373844591
95.5,89.89,5.61,1373844601
93.06,89.89,3.17,1373844603
93.06,90.0,3.06,1373844636
93.07,90.0,3.07,1373844677
93.0541,90.0,3.0541,1373844684
93.0541,89.88,3.1741,1373844757
93.25,89.88,3.37,1373844838
93.0541,89.88,3.1741,1373844879
93.0541,90.0,3.0541,1373844922
93.51,90.0,3.51,1373844927
93.85083,89.99,3.86083,1373844934
93.6,89.99,3.61,1373844940
93.83979,89.99,3.84979,1373844972
93.79751,89.99,3.80751,1373844979
93.91692,89.99,3.92692,1373844985
93.91192,89.99,3.92192,1373844992
93.6,89.99,3.61,1373844998
93.89299,89.99,3.90299,1373845033
95.5,89.99,5.51,1373845057
93.6,89.99,3.61,1373845059
93.87399,89.99,3.88399,1373845130
93.91759,89.99,3.92759,1373845159
93.86,89.99,3.87,1373845185
93.86,90.0,3.86,1373845191
93.90998,90.0,3.90998,1373845198
93.91,90.0,3.91,1373845204
93.91001,90.0,3.91001,1373845211
93.91001,89.94,3.97001,1373845222
93.91001,89.95,3.96001,1373845252
93.91759,89.95,3.96759,1373845271
93.91001,89.95,3.96001,1373845304
93.91759,89.95,3.96759,1373845311
93.91001,89.95,3.96001,1373845317
94.98,89.95,5.03,1373845331
94.10299,89.95,4.15299,1373845358
93.91499,89.95,3.96499,1373845365
94.10299,89.95,4.15299,1373845370
94.005,89.95,4.055,1373845428
94.00501,89.95,4.05501,1373845493
94.00502,89.95,4.05502,1373845513
94.00503,89.95,4.05503,1373845553
94.1,89.95,4.15,1373845587
94.09997,89.95,4.14997,1373845594
94.09996,89.95,4.14996,1373845600
94.09997,89.95,4.14997,1373845602
94.09996,89.95,4.14996,1373845607
94.005,89.95,4.055,1373845614
94.1,89.99,4.11,1373845627
94.10299,89.99,4.11299,1373845635
94.635,89.99,4.645,1373845648
94.60001,89.99,4.61001,1373845676
94.61,89.99,4.62,1373845750
94.44932,89.99,4.45932,1373845776
94.44932,89.96,4.48932,1373845798
94.61001,89.96,4.65001,1373845802
94.61001,89.95,4.66001,1373845820
94.61,89.95,4.66,1373845835
94.74282,89.95,4.79282,1373845842
94.106,89.95,4.156,1373845863
94.02901,89.95,4.07901,1373845907
94.02901,90.18,3.84901,1373845936
94.01003,90.18,3.83003,1373845980
94.69302,90.18,4.51302,1373845993
94.69301,90.18,4.51301,1373846006
94.71038,90.18,4.53038,1373846021
94.71038,90.12,4.59038,1373846028
94.71038,90.07,4.64038,1373846049
94.71038,90.05,4.66038,1373846056
94.71038,90.03,4.68038,1373846062
94.69134,90.03,4.66134,1373846086
94.69134,90.07,4.62134,1373846094
94.69134,90.06,4.63134,1373846114
94.69134,90.06,4.63134,1373846167
93.92457,89.73,4.19457,1373846889
93.47099,89.32,4.15099,1373847507
93.50001,88.85,4.65001,1373848097
94.39898,89.16,5.23898,1373849388
93.48801,89.16,4.32801,1373849534
93.48801,89.16,4.32801,1373849602
93.60429,89.16,4.44429,1373849629
94.38799,89.16,5.22799,1373849655
94.388,89.16,5.228,1373849662
94.24,89.98,4.26,1373858240
94.09996,89.98,4.11996,1373858351
94.24,89.98,4.26,1373858353
94.24,89.97,4.27,1373858454
94.24992,89.97,4.27992,1373858598
94.24992,89.96,4.28992,1373858736
94.1112,89.96,4.1512,1373858774
94.24991,89.96,4.28991,1373858787
97.5,92.12,5.38,1373886962
97.51,92.12,5.39,1373886982
97.51,92.01,5.50,1373886988
97.7,92.01,5.69,1373887033
97.84899,92.01,5.83899,1373887046
97.84899,91.97,5.87899,1373887052
97.84899,91.99,5.85899,1373887107
97.42,91.99,5.43,1373887128
97.42,92.12,5.30,1373887138
97.42,92.13,5.29,1373887148
97.42,92.12,5.30,1373887150
97.42,92.13,5.29,1373887160
98.0,92.13,5.87,1373887167
98.00004,92.13,5.87004,1373887205
98.2,92.13,6.07,1373887223
98.38997,92.22,6.16997,1373888239
98.38997,92.01,6.37997,1373888280
97.34001,92.14,5.20001,1373888655
99.0,93.38,5.62,1373891239
98.76,94.67,4.09,1373898015
98.76,94.65,4.11,1373898018
98.98777,94.65,4.33777,1373898035
98.98777,94.67,4.31777,1373898071
98.98777,94.7,4.28777,1373898103
98.7646,94.7,4.0646,1373898126
98.7646,94.67,4.0946,1373898133
98.76,94.67,4.09,1373898137
98.98777,94.68,4.30777,1373898163
98.98777,94.69,4.29777,1373898261
98.98777,94.7,4.28777,1373898334
98.98777,94.71,4.27777,1373898366
98.9,94.71,4.19,1373898450
98.9,94.65,4.25,1373898460
98.9,94.68,4.22,1373898487
98.9,94.69,4.21,1373898502
98.9,94.68,4.22,1373898537
98.8,94.68,4.12,1373898539
98.7596,94.68,4.0796,1373898564
98.7596,94.0,4.7596,1373898568
98.7596,93.94,4.8196,1373898574
98.7596,94.0,4.7596,1373898578
98.75693,93.52,5.23693,1373898603
98.75693,93.5,5.25693,1373898613
98.75693,93.38,5.37693,1373898620
98.55,93.38,5.17,1373898622
98.55,93.49,5.06,1373898626
98.55046,93.49,5.06046,1373898628
98.55046,93.5,5.05046,1373898630
98.55046,93.49,5.06046,1373898632
98.55055,93.49,5.06055,1373898634
98.55055,93.98,4.57055,1373898641
98.55045,93.98,4.57045,1373898660
98.55044,93.98,4.57044,1373898674
98.55,93.98,4.57,1373898680
98.55,93.48,5.07,1373898702
98.55,93.75,4.80,1373898731
98.55,93.46,5.09,1373898740
98.48977,93.46,5.02977,1373898751
98.53,93.46,5.07,1373898757
98.121,93.46,4.661,1373898763
98.121,93.98,4.141,1373898766
98.121,93.75,4.371,1373898770
98.1,93.75,4.35,1373898776
98.09891,93.75,4.34891,1373898789
98.0988,93.75,4.3488,1373898802
98.04346,93.75,4.29346,1373898848
98.04346,93.69,4.35346,1373898854
98.04346,92.95,5.09346,1373898863
98.0988,92.95,5.1488,1373898882
98.0988,93.66,4.4388,1373898916
98.405,93.66,4.745,1373899007
98.405,93.65,4.755,1373899009
98.405,93.64,4.765,1373899061
98.35847,93.64,4.71847,1373899072
98.125,93.64,4.485,1373899106
98.35846,93.64,4.71846,1373899125
98.54999,93.64,4.90999,1373899170
98.54999,93.66,4.88999,1373899215
98.54999,93.63,4.91999,1373899219
98.4,93.63,4.77,1373899249
98.4,93.62,4.78,1373899260
98.1516,93.62,4.5316,1373899268
98.15,93.62,4.53,1373899288
98.15,93.61,4.54,1373899292
98.4,93.61,4.79,1373899366
98.4,93.63,4.77,1373899368
98.4,93.45,4.95,1373899398
98.4,92.97,5.43,1373899414
98.4,93.03,5.37,1373899434
98.40001,93.03,5.37001,1373899438
98.49,93.03,5.46,1373899516
98.54998,93.03,5.51998,1373899548
98.42,93.03,5.39,1373899561
98.54999,93.03,5.51999,1373899574
98.42,93.03,5.39,1373899581
98.54999,93.03,5.51999,1373899594
98.27,93.03,5.24,1373899646
98.27012,93.03,5.24012,1373899659
98.3,93.03,5.27,1373899673
98.304,93.03,5.274,1373899746
98.54999,93.36,5.18999,1373899758
98.54999,92.82,5.72999,1373899787
98.54999,93.25,5.29999,1373899795
98.98677,93.25,5.73677,1373899804
98.304,93.25,5.054,1373899817
98.304,92.83,5.474,1373899822
98.33,92.83,5.50,1373899830
98.33,93.5,4.83,1373899839
99.478,92.84,6.638,1373899843
99.478,92.83,6.648,1373899848
99.478,93.5,5.978,1373899853
98.33,93.5,4.83,1373899857
98.336,92.86,5.476,1373899876
98.336,93.5,4.836,1373899889
98.336,92.86,5.476,1373899893
98.336,93.5,4.836,1373899897
98.46,93.5,4.96,1373899920
98.45999,93.5,4.95999,1373899933
98.45999,92.71,5.74999,1373899955
98.45999,93.97,4.48999,1373899964
98.6,93.97,4.63,1373899972
98.6,92.94,5.66,1373900002
98.6,92.99,5.61,1373900007
98.6,93.0,5.6,1373900011
98.6,93.13,5.47,1373900019
98.6,93.12,5.48,1373900074
98.6,93.13,5.47,1373900078
98.74578,93.14,5.60578,1373900087
98.74578,93.13,5.61578,1373900091
98.405,93.13,5.275,1373900106
98.405,93.15,5.255,1373900108
98.405,93.78,4.625,1373900223
98.405,93.17,5.235,1373900240
98.405,93.18,5.225,1373900254
98.405,93.19,5.215,1373900266
98.505,93.19,5.315,1373900289
98.505,93.15,5.355,1373900302
98.50001,93.15,5.35001,1373900355
98.74578,93.61,5.13578,1373900393
98.74578,93.6,5.14578,1373900408
98.6,93.6,5.0,1373900418
98.6,93.39,5.21,1373900459
98.6,93.41,5.19,1373900479
98.5,93.41,5.09,1373900496
98.5,93.44,5.06,1373900508
98.5,93.47,5.03,1373900534
98.5,93.48,5.02,1373900548
98.45,93.48,4.97,1373900556
98.45,93.47,4.98,1373900586
98.44999,93.47,4.97999,1373900588
98.405,93.48,4.925,1373900601
98.405,93.49,4.915,1373900608
98.44999,93.49,4.95999,1373900614
98.44999,93.5,4.94999,1373900662
98.5,93.5,5.0,1373900719
98.45,93.5,4.95,1373900738
98.44999,93.5,4.94999,1373900777
98.44999,93.58,4.86999,1373900783
97.995,93.23,4.765,1373903852
97.3,93.42,3.88,1373904680
97.0,93.36,3.64,1373906457
98.0,93.5,4.5,1373911674
98.0,93.51,4.49,1373911707
98.0,93.69,4.31,1373911711
98.0,93.52,4.48,1373911734
98.0,93.69,4.31,1373911738
98.01,93.69,4.32,1373911816
98.04999,93.69,4.35999,1373911823
98.62399,93.69,4.93399,1373911848
94.09996,93.69,0.40996,1373911864
98.62399,93.69,4.93399,1373911866
98.62399,93.5,5.12399,1373911907
98.00001,93.5,4.50001,1373911940
98.00001,93.66,4.34001,1373911973
98.00001,93.7,4.30001,1373912029
98.56354,93.7,4.86354,1373912046
94.09996,93.7,0.39996,1373912081
98.56354,93.7,4.86354,1373912083
98.0345,93.7,4.3345,1373912111
98.0345,93.28,4.7545,1373912118
98.00001,93.28,4.72001,1373912147
98.0,93.28,4.72,1373912153
98.0,93.71,4.29,1373912272
98.51165,93.71,4.80165,1373912291
98.00001,93.71,4.29001,1373912346
98.0,93.71,4.29,1373912365
97.1,93.71,3.39,1373912385
97.1,93.53,3.57,1373912396
97.89,93.53,4.36,1373912399
97.89,93.51,4.38,1373912421
97.3199,93.53,3.7899,1373912432
97.32136,93.53,3.79136,1373912438
97.98,93.51,4.47,1373912464
97.98,93.53,4.45,1373912520
98.0,93.53,4.47,1373912536
98.3,93.53,4.77,1373912589
98.48,93.53,4.95,1373912595
98.00001,93.53,4.47001,1373912602
98.00001,93.51,4.49001,1373912607
98.47999,93.51,4.96999,1373912616
98.38001,93.51,4.87001,1373912629
98.45,93.51,4.94,1373912643
98.38,93.51,4.87,1373912649
94.09996,93.51,0.58996,1373912659
98.38,93.51,4.87,1373912661
98.37916,93.51,4.86916,1373912668
98.44999,93.51,4.93999,1373912676
98.44999,93.5,4.94999,1373912719
97.99001,93.5,4.49001,1373912721
97.99,93.5,4.49,1373912735
97.99001,93.5,4.49001,1373912754
97.99001,93.49,4.50001,1373912769
97.99001,93.48,4.51001,1373912872
98.0,93.48,4.52,1373912910
98.0,93.46,4.54,1373912948
98.0,93.42,4.58,1373912983
97.99001,93.42,4.57001,1373912999
98.0,93.42,4.58,1373913006
98.0,93.41,4.59,1373913053
98.0,93.42,4.58,1373913057
98.0,93.4,4.6,1373913074
97.99,93.4,4.59,1373913099
98.0,93.4,4.6,1373913113
98.36999,93.4,4.96999,1373913130
98.36999,93.42,4.94999,1373913154
98.345,93.42,4.925,1373913223
98.39,93.42,4.97,1373913230
98.39,93.44,4.95,1373913467
98.39,93.4,4.99,1373913589
98.44386,93.4,5.04386,1373913604
98.44386,93.41,5.03386,1373913617
98.44386,93.5,4.94386,1373913623
98.44999,93.5,4.94999,1373913639
98.44999,93.44,5.00999,1373913682
97.80501,93.44,4.36501,1373913685
97.81999,93.44,4.37999,1373913778
97.81999,93.43,4.38999,1373913788
98.44998,93.43,5.01998,1373913822
98.44998,93.44,5.00998,1373913847
98.44998,93.45,4.99998,1373913882
97.80502,93.45,4.35502,1373913901
98.44998,93.45,4.99998,1373913921
97.80001,93.45,4.35001,1373913934
98.44997,93.45,4.99997,1373913947
98.44998,93.45,4.99998,1373913960
97.7,93.45,4.25,1373913967
98.49999,93.46,5.03999,1373913973
98.145,93.46,4.685,1373913980
98.47305,93.46,5.01305,1373914020
98.47304,93.46,5.01304,1373914027
98.45803,93.46,4.99803,1373914047
97.9,93.46,4.44,1373914092
98.5,93.46,5.04,1373914125
97.601,93.46,4.141,1373914146
98.5,93.46,5.04,1373914158
97.60403,93.46,4.14403,1373914185
98.50876,93.46,5.04876,1373914193
98.50876,93.45,5.05876,1373914220
98.51757,93.45,5.06757,1373914233
98.51757,93.46,5.05757,1373914244
98.52685,93.46,5.06685,1373914252
98.55,93.46,5.09,1373914259
98.51757,93.46,5.05757,1373914265
98.55,93.46,5.09,1373914272
98.55,93.45,5.10,1373914289
98.55,93.43,5.12,1373914300
98.59287,93.78,4.81287,1373914340
98.59287,93.3,5.29287,1373914347
98.59287,93.49,5.10287,1373914349
98.51,93.49,5.02,1373914356
98.51,93.78,4.73,1373914358
98.51,93.8,4.71,1373914383
98.66041,93.8,4.86041,1373914390
98.66041,93.74,4.92041,1373914481
98.66041,93.75,4.91041,1373914487
98.63,93.8,4.83,1373914514
98.63,93.74,4.89,1373914525
98.62999,93.74,4.88999,1373914587
98.68497,93.74,4.94497,1373914687
98.68497,93.25,5.43497,1373914698
98.68497,93.8,4.88497,1373914711
98.72979,93.8,4.92979,1373914726
98.72852,93.8,4.92852,1373914746
98.10001,93.8,4.30001,1373914779
98.10001,93.61,4.49001,1373914787
98.10001,93.6,4.50001,1373914818
98.11,93.6,4.51,1373914831
98.10999,93.6,4.50999,1373914838
97.80201,93.6,4.20201,1373914930
98.07854,93.6,4.47854,1373914996
98.07854,93.74,4.33854,1373915015
98.2,93.74,4.46,1373915115
98.72969,93.74,4.98969,1373915143
98.76019,93.74,5.02019,1373915164
98.30002,93.74,4.56002,1373915177
98.5,93.74,4.76,1373915261
98.77249,93.74,5.03249,1373915316
98.5,93.74,4.76,1373915323
98.77249,93.74,5.03249,1373915343
98.86781,93.74,5.12781,1373915364
98.86782,93.74,5.12782,1373915383
98.9,93.74,5.16,1373915390
98.9,93.71,5.19,1373915421
99.5,93.71,5.79,1373915430
98.86783,93.71,5.15783,1373915437
99.61,93.71,5.90,1373915483
99.21411,93.71,5.50411,1373915485
99.61,93.71,5.90,1373915499
99.0,93.71,5.29,1373915513
99.00001,93.71,5.29001,1373915519
99.63286,93.71,5.92286,1373915525
99.63286,93.95,5.68286,1373915536
99.5,93.95,5.55,1373915538
99.5,93.71,5.79,1373915542
99.5,93.94,5.56,1373915552
99.30001,93.95,5.35001,1373915572
99.30001,93.94,5.36001,1373915576
99.3,93.94,5.36,1373915579
99.3,93.95,5.35,1373915594
99.3,93.94,5.36,1373915599
99.0,93.94,5.06,1373915606
98.51,93.94,4.57,1373915651
98.60001,93.94,4.66001,1373915716
98.6,93.94,4.66,1373915722
98.60001,93.94,4.66001,1373915798
98.7,93.94,4.76,1373915862
98.7,93.95,4.75,1373915874
98.99998,93.95,5.04998,1373915903
98.7,93.95,4.75,1373915916
98.61,93.95,4.66,1373915941
99.0,93.95,5.05,1373915948
99.49724,93.95,5.54724,1373915961
98.61001,93.95,4.66001,1373915990
98.61001,93.94,4.67001,1373916016
98.61001,93.95,4.66001,1373916020
99.5,93.95,5.55,1373916022
98.6,93.95,4.65,1373916029
98.61,93.95,4.66,1373916035
99.49768,93.95,5.54768,1373916050
99.49769,93.95,5.54769,1373916056
98.61,93.95,4.66,1373916076
98.6,93.95,4.65,1373916095
98.99998,93.95,5.04998,1373916107
98.99998,93.94,5.05998,1373916109
98.6,93.94,4.66,1373916116
98.61,93.94,4.67,1373916136
99.499,93.94,5.559,1373916188
99.499,93.77,5.729,1373916192
98.61,93.77,4.84,1373916220
99.599,93.77,5.829,1373916234
99.78999,93.77,6.01999,1373916254
98.76823,93.77,4.99823,1373916267
99.49,93.77,5.72,1373916280
98.90001,93.77,5.13001,1373916286
98.90001,93.84,5.06001,1373916289
99.49,93.84,5.65,1373916293
99.49,93.83,5.66,1373916304
98.90005,93.95,4.95005,1373916326
98.90005,93.83,5.07005,1373916328
99.0,93.83,5.17,1373916338
98.90005,93.83,5.07005,1373916345
99.60429,93.83,5.77429,1373916359
99.60429,93.86,5.74429,1373916363
98.90006,93.86,5.04006,1373916372
98.90007,93.86,5.04007,1373916385
98.60349,93.86,4.74349,1373916392
99.1,93.86,5.24,1373916406
99.1,93.89,5.21,1373916434
99.1,93.95,5.15,1373916447
99.1,93.89,5.21,1373916454
99.1,93.9,5.2,1373916465
99.1,93.95,5.15,1373916491
99.1,93.91,5.19,1373916493
99.1,93.95,5.15,1373916500
99.1,93.91,5.19,1373916502
99.1,93.92,5.18,1373916513
99.0,94.44,4.56,1373920842
99.00001,94.44,4.56001,1373920888
99.0,94.44,4.56,1373920909
98.61001,94.44,4.17001,1373920916
98.61001,94.39,4.22001,1373920928
99.0049,94.39,4.6149,1373920943
98.61002,94.25,4.36002,1373920950
98.61002,94.42,4.19002,1373920969
98.61002,94.4,4.21002,1373920973
98.61002,94.26,4.35002,1373920993
99.0049,94.26,4.7449,1373921005
99.0049,94.25,4.7549,1373921014
98.61004,94.25,4.36004,1373921019
98.61003,94.25,4.36003,1373921092
99.0,94.24,4.76,1373921104
98.61006,94.24,4.37006,1373921138
98.99999,94.24,4.75999,1373921144
98.61006,94.24,4.37006,1373921151
98.6113,94.24,4.3713,1373921185
98.99998,94.24,4.75998,1373921204
98.61412,94.24,4.37412,1373921213
98.99999,94.24,4.75999,1373921220
98.99998,94.24,4.75998,1373921248
98.61079,94.24,4.37079,1373921259
98.61006,94.24,4.37006,1373921265
99.0,94.24,4.76,1373921271
98.61081,94.24,4.37081,1373921329
98.61029,94.24,4.37029,1373921333
98.61029,94.0,4.61029,1373921350
98.95,94.0,4.95,1373921367
98.95,93.99,4.96,1373921380
98.95,94.0,4.95,1373921391
98.95,93.97,4.98,1373921403
98.95,93.96,4.99,1373921418
98.95,93.01,5.94,1373921441
98.94999,93.01,5.93999,1373921463
98.94999,93.0,5.94999,1373921469
98.94999,93.93,5.01999,1373921501
98.94999,94.0,4.94999,1373921522
98.94998,94.0,4.94998,1373921565
98.69,94.0,4.69,1373921581
98.69,93.87,4.82,1373921592
98.69,93.86,4.83,1373921608
98.69,93.17,5.52,1373921649
98.61134,93.22,5.39134,1373921716
98.61134,93.24,5.37134,1373921729
98.61134,93.51,5.10134,1373921773
98.61134,93.76,4.85134,1373921775
98.7,93.76,4.94,1373921790
98.7,93.5,5.2,1373921792
98.61001,93.5,5.11001,1373921811
98.61001,93.5,5.11001,1373921832
